{
  "iisSettings": {
    "windowsAuthentication": false,
    "anonymousAuthentication": true,
    "iisExpress": {
      "applicationUrl": "http://localhost:50129/",
      "sslPort": 0
    }
  },
  "profiles": {
    "IIS Express": {
      "commandName": "IISExpress",
      "launchBrowser": true,
      "environmentVariables": {
        "ASPNETCORE_ENVIRONMENT": "Development"
      }
    },
    "RebelCon.Demo.Api": {
      "commandName": "Project",
      "launchBrowser": true,
      "environmentVariables": {
        "ASPNETCORE_ENVIRONMENT": "Development"
      },
      "applicationUrl": "http://localhost:50131/"
    },
    "Mock Lambda Test Tool": {
      "commandName": "Executable",
      "commandLineArgs": "--port 5050",
      "workingDirectory": ".\\bin\\Debug\\netcoreapp2.1",
        "executablePath": "C:\\Users\\%USERNAME%\\.dotnet\\tools\\dotnet-lambda-test-tool-2.1.exe",
        "environmentVariables": {
            "ALGOLIA_API_INDEX": "RebelConDemo",
            "ALGOLIA_APP_ID": "PRG1FTMY8Y",
            "ALGOLIA_API_KEY": "fab3a37fd2c32bafa6d6302b8b689b1e",
            "TABLE_NAME": "RebelCon",
            "ENV": "local"
        }
    }
  }
}
