﻿{
    "TableName": "local",
    "KeySchema": [
        {
            "AttributeName": "Id",
            "KeyType": "HASH"
        }
    ],
    "AttributeDefinitions": [
        {
            "AttributeName": "Id",
            "AttributeType": "S"
        }
    ],
    "ProvisionedThroughput": {
        "ReadCapacityUnits": 5,
        "WriteCapacityUnits": 5
    }
}
